<?xml version="1.0" encoding="UTF-8"?>
<svg width="32px" height="32px" viewBox="0 0 32 32" version="1.1" xmlns="http://www.w3.org/2000/svg" xmlns:xlink="http://www.w3.org/1999/xlink">
    <!-- Generator: Sketch 55.2 (78181) - https://sketchapp.com -->
    <title>Outlined/UI/Cart Copy</title>
    <desc>Created with Sketch.</desc>
    <g id="Outlined/UI/Cart-Copy" stroke="none" stroke-width="1" fill="none" fill-rule="evenodd">
        <path d="M24.4320809,10.2307692 L22.8822254,3.61923077 C22.5194019,2.07954298 21.2193793,1 19.7283237,1 L12.2716763,1 C10.7806207,1 9.48059809,2.07954298 9.11777457,3.61923077 L7.56791908,10.2307692 L1,10.2307692 L5.25939306,28.3807692 C5.62221659,29.920457 6.9222392,31 8.4132948,31 L23.5867052,31 C25.0777608,31 26.3777834,29.920457 26.7406069,28.3807692 L31,10.2307692 L24.4320809,10.2307692 Z M14.916185,21.7692308 L14.916185,28.6923077 L12.5643064,28.6923077 L11.3395954,21.7692308 L14.916185,21.7692308 Z M10.9385838,19.4615385 L9.71387283,12.5384615 L14.916185,12.5384615 L14.916185,19.4615385 L10.9385838,19.4615385 Z M17.083815,21.7692308 L20.6604046,21.7692308 L19.4356936,28.6923077 L17.083815,28.6923077 L17.083815,21.7692308 Z M17.083815,19.4615385 L17.083815,12.5384615 L22.2861272,12.5384615 L21.0614162,19.4615385 L17.083815,19.4615385 Z M24.4862717,12.5384615 L28.2254335,12.5384615 L26.599711,19.4615385 L23.2615607,19.4615385 L24.4862717,12.5384615 Z M11.2203757,4.18461538 C11.3426469,3.65709621 11.7940421,3.29186889 12.3041908,3.30769231 L19.7608382,3.30769231 C20.2709868,3.29186889 20.722382,3.65709621 20.8446532,4.18461538 L22.199422,10.2307692 L9.80057803,10.2307692 L11.2203757,4.18461538 Z M7.51372832,12.5384615 L8.73843931,19.4615385 L5.40028902,19.4615385 L3.77456647,12.5384615 L7.51372832,12.5384615 Z M7.32947977,27.8153846 L5.94219653,21.7692308 L9.19364162,21.7692308 L10.4075145,28.6923077 L8.4132948,28.6923077 C7.90314612,28.7081311 7.45175093,28.3429038 7.32947977,27.8153846 L7.32947977,27.8153846 Z M24.6054913,27.8153846 C24.4890534,28.3178556 24.0725981,28.6763206 23.5867052,28.6923077 L21.6466763,28.6923077 L22.8605491,21.7692308 L26.1119942,21.7692308 L24.6054913,27.8153846 Z" id="Style" fill="#20409A"></path>
        <path d="M24.4497362,10.2 L22.2173956,10.2 L20.8695213,4.18461538 C20.7472501,3.65709621 20.2958549,3.29186889 19.7857063,3.30769231 L12.3290589,3.30769231 C11.8189102,3.29186889 11.367515,3.65709621 11.2452438,4.18461538 L9.83267157,10.2 L7.6,10.2 L9.14264267,3.61923077 C9.50546619,2.07954298 10.8054888,1 12.2965444,1 L19.7531918,1 C21.2442474,1 22.54427,2.07954298 22.9070935,3.61923077 L24.4497362,10.2 Z" id="Combined-Shape" fill="#EE325F"></path>
    </g>
</svg>