<?xml version="1.0" encoding="UTF-8"?>
<svg width="32px" height="32px" viewBox="0 0 32 32" version="1.1" xmlns="http://www.w3.org/2000/svg" xmlns:xlink="http://www.w3.org/1999/xlink">
    <!-- Generator: Sketch 55.2 (78181) - https://sketchapp.com -->
    <title>Outlined/UI/date Copy</title>
    <desc>Created with Sketch.</desc>
    <g id="Outlined/UI/date-Copy" stroke="none" stroke-width="1" fill="none" fill-rule="evenodd">
        <path d="M26,3.99999996 L26,1.99999996 L24,1.99999996 L24,3.99999996 L7.99999996,3.99999996 L7.99999996,1.99999996 L5.99999996,1.99999996 L5.99999996,3.99999996 L1.99999996,3.99999996 L1.99999996,25 C1.99999996,26.6568543 3.34314571,28 4.99999996,28 L27,28 C28.6568543,28 30,26.6568543 30,25 L30,3.99999996 L26,3.99999996 Z M28,25 C28,25.5522848 27.5522848,26 27,26 L4.99999996,26 C4.44771521,26 3.99999996,25.5522848 3.99999996,25 L3.99999996,5.99999997 L5.99999996,5.99999997 L5.99999996,8.99999997 L7.99999996,8.99999997 L7.99999996,5.99999997 L24,5.99999997 L24,8.99999997 L26,8.99999997 L26,5.99999997 L28,5.99999997 L28,25 Z" id="Style" fill="#20409A"></path>
        <polygon id="Outlined/UI/073_paper-Copy" fill="#20409A" fill-rule="nonzero" points="6.4 12 4 12 4 14 6.4 14 25.6 14 28 14 28 12 25.6 12"></polygon>
        <polygon id="Path-Copy" fill="#EE325F" fill-rule="nonzero" points="11 17 8 17 8 19 11 19 20 19 23 19 23 17 20 17"></polygon>
        <polygon id="Path-Copy-2" fill="#20409A" fill-rule="nonzero" points="9.94749287 21 7.94749287 21 7.94749287 23 9.94749287 23 15.9474929 23 17.9474929 23 17.9474929 21 15.9474929 21"></polygon>
    </g>
</svg>