<?xml version="1.0" encoding="UTF-8"?>
<svg width="32px" height="32px" viewBox="0 0 32 32" version="1.1" xmlns="http://www.w3.org/2000/svg" xmlns:xlink="http://www.w3.org/1999/xlink">
    <!-- Generator: Sketch 55.2 (78181) - https://sketchapp.com -->
    <title>Outlined/UI/home</title>
    <desc>Created with Sketch.</desc>
    <g id="Outlined/UI/home" stroke="none" stroke-width="1" fill="none" fill-rule="evenodd">
        <path d="M18.12,2.87999996 C16.9315865,1.75237116 15.0684135,1.75237116 13.88,2.87999996 L1.28999995,15.46 L2.70999996,16.88 L4.99999996,14.59 L4.99999996,27 C4.99999996,28.6568543 6.34314572,30 7.99999997,30 L24,30 C25.6568543,30 27,28.6568543 27,27 L27,14.59 L29.29,16.88 L30.71,15.46 L18.12,2.87999996 Z M14,28 L14,21 L18,21 L18,28 L14,28 Z M25,27 C25,27.5522848 24.5522848,28 24,28 L20,28 L20,19 L12,19 L12,28 L7.99999997,28 C7.44771522,28 6.99999997,27.5522848 6.99999997,27 L6.99999997,12.59 L15.29,4.28999996 C15.4777666,4.10068731 15.7333625,3.99420164 16,3.99420164 C16.2666375,3.99420164 16.5222334,4.10068731 16.71,4.28999996 L25,12.59 L25,27 Z" id="Style" fill="#646464"></path>
    </g>
</svg>