<?xml version="1.0" encoding="UTF-8"?>
<svg width="32px" height="32px" viewBox="0 0 32 32" version="1.1" xmlns="http://www.w3.org/2000/svg" xmlns:xlink="http://www.w3.org/1999/xlink">
    <!-- Generator: Sketch 55.2 (78181) - https://sketchapp.com -->
    <title>Outlined/UI/bookmark Copy 2</title>
    <desc>Created with Sketch.</desc>
    <g id="Outlined/UI/bookmark-Copy-2" stroke="none" stroke-width="1" fill="none" fill-rule="evenodd">
        <path d="M22,1.99999996 L9.99999997,1.99999996 C8.34314573,1.99999996 6.99999997,3.34314571 6.99999997,4.99999996 L6.99999997,30.3 L14.73,26.69 C15.5348987,26.313896 16.4651013,26.313896 17.27,26.69 L25,30.3 L25,4.99999996 C25,3.34314571 23.6568543,1.99999996 22,1.99999996 Z M23,27.16 L18.11,24.88 C16.772246,24.2573056 15.227754,24.2573056 13.89,24.88 L8.99999998,27.16 L8.99999998,7.99999998 L23,7.99999998 L23,27.16 Z M23,5.99999996 L8.99999998,5.99999996 L8.99999998,4.99999996 C8.99999998,4.44771521 9.44771523,3.99999996 9.99999998,3.99999996 L22,3.99999996 C22.5522848,3.99999996 23,4.44771521 23,4.99999996 L23,5.99999996 Z" id="Style" fill="#20409A"></path>
        <polygon id="Outlined/UI/073_paper" fill="#EE325F" fill-rule="nonzero" points="12 12 11 12 11 14 12 14 20 14 21 14 21 12 20 12"></polygon>
        <polygon id="Path" fill="#20409A" fill-rule="nonzero" points="12 16 11 16 11 18 12 18 15 18 16 18 16 16 15 16"></polygon>
    </g>
</svg>